…
```
## Source: local data frame [180 x 70]
## Groups: subject [30]
## 
##    subject      activity_name activity_id  saID tBodyAcc_mean_X
##      <int>             <fctr>       <dbl> <chr>           <dbl>
## 1        1            WALKING           1   1_1       0.2773308
## 2        1   WALKING_UPSTAIRS           2   1_2       0.2554617
## 3        1 WALKING_DOWNSTAIRS           3   1_3       0.2891883
## 4        1            SITTING           4   1_4       0.2612376
## 5        1           STANDING           5   1_5       0.2789176
## 6        1             LAYING           6   1_6       0.2215982
## 7        2            WALKING           1   2_1       0.2764266
## 8        2   WALKING_UPSTAIRS           2   2_2       0.2471648
## 9        2 WALKING_DOWNSTAIRS           3   2_3       0.2776153
## 10       2            SITTING           4   2_4       0.2770874
## # ... with 170 more rows, and 65 more variables: tBodyAcc_mean_Y <dbl>,
## #   tBodyAcc_mean_Z <dbl>, tBodyAcc_std_X <dbl>, tBodyAcc_std_Y <dbl>,
## #   tBodyAcc_std_Z <dbl>, tGravityAcc_mean_X <dbl>,
## #   tGravityAcc_mean_Y <dbl>, tGravityAcc_mean_Z <dbl>,
## #   tGravityAcc_std_X <dbl>, tGravityAcc_std_Y <dbl>,
## #   tGravityAcc_std_Z <dbl>, tBodyAccJerk_mean_X <dbl>,
## #   tBodyAccJerk_mean_Y <dbl>, tBodyAccJerk_mean_Z <dbl>,
## #   tBodyAccJerk_std_X <dbl>, tBodyAccJerk_std_Y <dbl>,
## #   tBodyAccJerk_std_Z <dbl>, tBodyGyro_mean_X <dbl>,
…
